package org.drools.workshop;
import model.*;
import java.util.List;

rule "My First Drools Rule"
  when
    $rm: RuleModel()
  then
    System.out.println("Rule fired");
    modify($rm){
        ruleOutput = "Data from RuleStrategy"
    }
end